# File: mac.raw

# Base rect 1
0.015 0.000 0.000 0.5 0.5 0.5
0.015 0.325 0.000 0.5 0.5 0.5
0.210 0.000 0.000 0.5 0.5 0.5
0.015 0.325 0.000 0.5 0.5 0.5
0.210 0.000 0.000 0.5 0.5 0.5
0.210 0.325 0.000 0.5 0.5 0.5

# Base rect 2
0.000 0.015 0.000 0.5 0.5 0.5
0.000 0.310 0.000 0.5 0.5 0.5
0.015 0.015 0.000 0.5 0.5 0.5
0.000 0.310 0.000 0.5 0.5 0.5
0.015 0.015 0.000 0.5 0.5 0.5
0.015 0.310 0.000 0.5 0.5 0.5

# Base rect 3
0.210 0.015 0.000 0.5 0.5 0.5
0.210 0.310 0.000 0.5 0.5 0.5
0.225 0.015 0.000 0.5 0.5 0.5
0.210 0.310 0.000 0.5 0.5 0.5
0.225 0.015 0.000 0.5 0.5 0.5
0.225 0.310 0.000 0.5 0.5 0.5

# Base cylinder 1
0 0.015 0 0.5 0.5 0.5
0.000734152255572695 0.0103647450843758 0 0.5 0.5 0.5
0.015 0.015 0 0.5 0.5 0.5
0.000734152255572695 0.0103647450843758 0 0.5 0.5 0.5
0.00286474508437579 0.00618322121561291 0 0.5 0.5 0.5
0.015 0.015 0 0.5 0.5 0.5
0.00286474508437579 0.00618322121561291 0 0.5 0.5 0.5
0.0061832212156129 0.00286474508437579 0 0.5 0.5 0.5
0.015 0.015 0 0.5 0.5 0.5
0.0061832212156129 0.00286474508437579 0 0.5 0.5 0.5
0.0103647450843758 0.000734152255572697 0 0.5 0.5 0.5
0.015 0.015 0 0.5 0.5 0.5
0.0103647450843758 0.000734152255572697 0 0.5 0.5 0.5
0.015 0 0 0.5 0.5 0.5
0.015 0.015 0 0.5 0.5 0.5

0.015 0.325 0 0.5 0.5 0.5
0.0103647450843758 0.324265847744427 0 0.5 0.5 0.5
0.015 0.310 0 0.5 0.5 0.5
0.0103647450843758 0.324265847744427 0 0.5 0.5 0.5
0.00618322121561291 0.322135254915624 0 0.5 0.5 0.5
0.015 0.310 0 0.5 0.5 0.5
0.00618322121561291 0.322135254915624 0 0.5 0.5 0.5
0.00286474508437579 0.318816778784387 0 0.5 0.5 0.5
0.015 0.310 0 0.5 0.5 0.5
0.00286474508437579 0.318816778784387 0 0.5 0.5 0.5
0.000734152255572697 0.314635254915624 0 0.5 0.5 0.5
0.015 0.310 0 0.5 0.5 0.5
0.000734152255572697 0.314635254915624 0 0.5 0.5 0.5
0 0.31 0 0.5 0.5 0.5
0.015 0.310 0 0.5 0.5 0.5

0.225 0.31 0 0.5 0.5 0.5
0.224265847744427 0.314635254915624 0 0.5 0.5 0.5
0.21 0.31 0 0.5 0.5 0.5
0.224265847744427 0.314635254915624 0 0.5 0.5 0.5
0.222135254915624 0.318816778784387 0 0.5 0.5 0.5
0.21 0.31 0 0.5 0.5 0.5
0.222135254915624 0.318816778784387 0 0.5 0.5 0.5
0.218816778784387 0.322135254915624 0 0.5 0.5 0.5
0.21 0.31 0 0.5 0.5 0.5
0.218816778784387 0.322135254915624 0 0.5 0.5 0.5
0.214635254915624 0.324265847744427 0 0.5 0.5 0.5
0.21 0.31 0 0.5 0.5 0.5
0.214635254915624 0.324265847744427 0 0.5 0.5 0.5
0.21 0.325 0 0.5 0.5 0.5
0.21 0.31 0 0.5 0.5 0.5

0.21 0 0 0.5 0.5 0.5
0.214635254915624 0.000734152255572695 0 0.5 0.5 0.5
0.21 0.015 0 0.5 0.5 0.5
0.214635254915624 0.000734152255572695 0 0.5 0.5 0.5
0.218816778784387 0.00286474508437579 0 0.5 0.5 0.5
0.21 0.015 0 0.5 0.5 0.5
0.218816778784387 0.00286474508437579 0 0.5 0.5 0.5
0.222135254915624 0.0061832212156129 0 0.5 0.5 0.5
0.21 0.015 0 0.5 0.5 0.5
0.222135254915624 0.0061832212156129 0 0.5 0.5 0.5
0.224265847744427 0.0103647450843758 0 0.5 0.5 0.5
0.21 0.015 0 0.5 0.5 0.5
0.224265847744427 0.0103647450843758 0 0.5 0.5 0.5
0.225 0.015 0 0.5 0.5 0.5
0.21 0.015 0 0.5 0.5 0.5

# Base up rect 1
0.015 0.000 0.008 0.5 0.5 0.5
0.015 0.325 0.008 0.5 0.5 0.5
0.210 0.000 0.000 0.5 0.5 0.5
0.015 0.325 0.008 0.5 0.5 0.5
0.210 0.000 0.000 0.5 0.5 0.5
0.210 0.325 0.000 0.5 0.5 0.5

0 0.015 0.008 0.5 0.5 0.5
0.000734152255572695 0.0103647450843758 0.008 0.5 0.5 0.5
0.015 0.015 0.008 0.5 0.5 0.5
0.000734152255572695 0.0103647450843758 0.008 0.5 0.5 0.5
0.00286474508437579 0.00618322121561291 0.008 0.5 0.5 0.5
0.015 0.015 0.008 0.5 0.5 0.5
0.00286474508437579 0.00618322121561291 0.008 0.5 0.5 0.5
0.0061832212156129 0.00286474508437579 0.008 0.5 0.5 0.5
0.015 0.015 0.008 0.5 0.5 0.5
0.0061832212156129 0.00286474508437579 0.008 0.5 0.5 0.5
0.0103647450843758 0.000734152255572697 0.008 0.5 0.5 0.5
0.015 0.015 0.008 0.5 0.5 0.5
0.0103647450843758 0.000734152255572697 0.008 0.5 0.5 0.5
0.015 0 0.008 0.5 0.5 0.5
0.015 0.015 0.008 0.5 0.5 0.5

0.015 0.325 0.008 0.5 0.5 0.5
0.0103647450843758 0.324265847744427 0.008 0.5 0.5 0.5
0.015 0.310 0.008 0.5 0.5 0.5
0.0103647450843758 0.324265847744427 0.008 0.5 0.5 0.5
0.00618322121561291 0.322135254915624 0.008 0.5 0.5 0.5
0.015 0.310 0.008 0.5 0.5 0.5
0.00618322121561291 0.322135254915624 0.008 0.5 0.5 0.5
0.00286474508437579 0.318816778784387 0.008 0.5 0.5 0.5
0.015 0.310 0.008 0.5 0.5 0.5
0.00286474508437579 0.318816778784387 0.008 0.5 0.5 0.5
0.000734152255572697 0.314635254915624 0.008 0.5 0.5 0.5
0.015 0.310 0.008 0.5 0.5 0.5
0.000734152255572697 0.314635254915624 0.008 0.5 0.5 0.5
0 0.31 0.008 0.5 0.5 0.5
0.015 0.310 0.008 0.5 0.5 0.5

# Screen
0.0 0.0 0.0 0.5 0.5 0.5
0.0 0.31 0.0 0.5 0.5 0.5
0.0 0.31 0.21 0.5 0.5 0.5
0.0 0.0 0.0 0.5 0.5 0.5
0.0 0.31 0.21 0.5 0.5 0.5
0.0 0.0 0.21 0.5 0.5 0.5

0.001 0.02 0.02 0.0 0.0 0.0
0.001 0.29 0.02 0.0 0.0 0.0
0.001 0.29 0.19 0.0 0.0 0.0
0.001 0.02 0.02 0.0 0.0 0.0
0.001 0.29 0.19 0.0 0.0 0.0
0.001 0.02 0.19 0.0 0.0 0.0

# Touchpad
0.14 0.11 0.005 1 1 1
0.14 0.215 0.005 1 1 1
0.215 0.11 0 1 1 1
0.14 0.215 0.005 1 1 1
0.215 0.11 0 1 1 1
0.215 0.215 0 1 1 1

# Keyboard

# Apple Logo
